Part5/cpu_wavedata.vcd
$date
	Tue Jun 24 14:27:55 2025
$end
$version
	Icarus Verilog
$end
$timescale
	1s
$end
$scope module cpu_tb $end
$var wire 32 ! PC [31:0] $end
$var wire 32 " INSTRUCTION [31:0] $end
$var reg 1 # CLK $end
$var reg 1 $ RESET $end
$var integer 32 % i [31:0] $end
$scope module mycpu $end
$var wire 1 # CLK $end
$var wire 32 & INSTRUCTION [31:0] $end
$var wire 1 $ RESET $end
$var wire 1 ' ZERO_OUT $end
$var wire 3 ( WRITEREG [2:0] $end
$var wire 1 ) WRITEENABLE $end
$var wire 1 * SIGN $end
$var wire 32 + SHIFT_OUT [31:0] $end
$var wire 8 , REGOUT2 [7:0] $end
$var wire 8 - REGOUT1 [7:0] $end
$var wire 3 . READREG2 [2:0] $end
$var wire 3 / READREG1 [2:0] $end
$var wire 32 0 PC_NEW [31:0] $end
$var wire 32 1 PC [31:0] $end
$var wire 8 2 OUT_SIGN [7:0] $end
$var wire 8 3 OUT_IMM [7:0] $end
$var wire 8 4 OUT2_S [7:0] $end
$var wire 8 5 OPCODE [7:0] $end
$var wire 8 6 OFFSET [7:0] $end
$var wire 32 7 MUX_32_IN [31:0] $end
$var wire 1 8 LOGIC_OUT $end
$var wire 1 9 JUMP_OUT $end
$var wire 8 : IMMEDIATE [7:0] $end
$var wire 1 ; IMM $end
$var wire 32 < EXT_OUT [31:0] $end
$var wire 1 = BNEQ_OUT $end
$var wire 1 > BEQ_OUT $end
$var wire 8 ? ALURESULT [7:0] $end
$var wire 3 @ ALUOP [2:0] $end
$scope module adder_inst $end
$var wire 32 A DATA2 [31:0] $end
$var wire 32 B DATA1 [31:0] $end
$var reg 32 C OUTPUT [31:0] $end
$upscope $end
$scope module alu_inst $end
$var wire 8 D or_out [7:0] $end
$var wire 8 E mul_out [7:0] $end
$var wire 8 F forward_out [7:0] $end
$var wire 8 G and_out [7:0] $end
$var wire 8 H add_out [7:0] $end
$var wire 1 ' ZERO $end
$var wire 3 I SELECT [2:0] $end
$var wire 8 J RShift [7:0] $end
$var wire 8 K ROTATE [7:0] $end
$var wire 8 L LShift [7:0] $end
$var wire 8 M DATA2 [7:0] $end
$var wire 8 N DATA1 [7:0] $end
$var reg 8 O RESULT [7:0] $end
$scope module LShift_1 $end
$var wire 3 P SHIFT [2:0] $end
$var wire 8 Q INPUT [7:0] $end
$var reg 8 R OUT [7:0] $end
$upscope $end
$scope module ROTATE_1 $end
$var wire 3 S SHIFT [2:0] $end
$var wire 8 T INPUT [7:0] $end
$var reg 8 U OUT [7:0] $end
$upscope $end
$scope module RShift_1 $end
$var wire 3 V SHIFT [2:0] $end
$var wire 8 W INPUT [7:0] $end
$var reg 8 X OUT [7:0] $end
$upscope $end
$scope module add $end
$var wire 8 Y RESULT [7:0] $end
$var wire 8 Z DATA2 [7:0] $end
$var wire 8 [ DATA1 [7:0] $end
$upscope $end
$scope module andg $end
$var wire 8 \ RESULT [7:0] $end
$var wire 8 ] DATA2 [7:0] $end
$var wire 8 ^ DATA1 [7:0] $end
$upscope $end
$scope module fwd $end
$var wire 8 _ RESULT [7:0] $end
$var wire 8 ` DATA2 [7:0] $end
$upscope $end
$scope module multiplier_1 $end
$var wire 8 a OUT [7:0] $end
$var wire 1 b sum5 $end
$var wire 2 c sum4 [1:0] $end
$var wire 3 d sum3 [2:0] $end
$var wire 4 e sum2 [3:0] $end
$var wire 5 f sum1 [4:0] $end
$var wire 6 g sum0 [5:0] $end
$var wire 1 h dummy6 $end
$var wire 1 i dummy5 $end
$var wire 1 j dummy4 $end
$var wire 1 k dummy3 $end
$var wire 1 l dummy2 $end
$var wire 1 m dummy1 $end
$var wire 1 n dummy0 $end
$var wire 8 o OUTPUT [7:0] $end
$var wire 8 p INPUT2 [7:0] $end
$var wire 8 q INPUT1 [7:0] $end
$var wire 1 r C5 $end
$var wire 2 s C4 [1:0] $end
$var wire 3 t C3 [2:0] $end
$var wire 4 u C2 [3:0] $end
$var wire 5 v C1 [4:0] $end
$var wire 6 w C0 [5:0] $end
$scope module FA0_0 $end
$var wire 1 x A $end
$var wire 1 y B $end
$var wire 1 z C $end
$var wire 1 { CARRY $end
$var wire 1 | SUM $end
$upscope $end
$scope module FA0_1 $end
$var wire 1 } A $end
$var wire 1 ~ B $end
$var wire 1 !" C $end
$var wire 1 "" CARRY $end
$var wire 1 #" SUM $end
$upscope $end
$scope module FA0_2 $end
$var wire 1 $" A $end
$var wire 1 %" B $end
$var wire 1 &" C $end
$var wire 1 '" CARRY $end
$var wire 1 (" SUM $end
$upscope $end
$scope module FA0_3 $end
$var wire 1 )" A $end
$var wire 1 *" B $end
$var wire 1 +" C $end
$var wire 1 ," CARRY $end
$var wire 1 -" SUM $end
$upscope $end
$scope module FA0_4 $end
$var wire 1 ." A $end
$var wire 1 /" B $end
$var wire 1 0" C $end
$var wire 1 1" CARRY $end
$var wire 1 2" SUM $end
$upscope $end
$scope module FA0_5 $end
$var wire 1 3" A $end
$var wire 1 4" B $end
$var wire 1 5" C $end
$var wire 1 6" CARRY $end
$var wire 1 7" SUM $end
$upscope $end
$scope module FA0_6 $end
$var wire 1 8" A $end
$var wire 1 9" B $end
$var wire 1 :" C $end
$var wire 1 n CARRY $end
$var wire 1 ;" SUM $end
$upscope $end
$scope module FA1_0 $end
$var wire 1 <" A $end
$var wire 1 =" B $end
$var wire 1 >" C $end
$var wire 1 ?" CARRY $end
$var wire 1 @" SUM $end
$upscope $end
$scope module FA1_1 $end
$var wire 1 A" A $end
$var wire 1 B" B $end
$var wire 1 C" C $end
$var wire 1 D" CARRY $end
$var wire 1 E" SUM $end
$upscope $end
$scope module FA1_2 $end
$var wire 1 F" A $end
$var wire 1 G" B $end
$var wire 1 H" C $end
$var wire 1 I" CARRY $end
$var wire 1 J" SUM $end
$upscope $end
$scope module FA1_3 $end
$var wire 1 K" A $end
$var wire 1 L" B $end
$var wire 1 M" C $end
$var wire 1 N" CARRY $end
$var wire 1 O" SUM $end
$upscope $end
$scope module FA1_4 $end
$var wire 1 P" A $end
$var wire 1 Q" B $end
$var wire 1 R" C $end
$var wire 1 S" CARRY $end
$var wire 1 T" SUM $end
$upscope $end
$scope module FA1_5 $end
$var wire 1 U" A $end
$var wire 1 V" B $end
$var wire 1 W" C $end
$var wire 1 m CARRY $end
$var wire 1 X" SUM $end
$upscope $end
$scope module FA2_0 $end
$var wire 1 Y" A $end
$var wire 1 Z" B $end
$var wire 1 [" C $end
$var wire 1 \" CARRY $end
$var wire 1 ]" SUM $end
$upscope $end
$scope module FA2_1 $end
$var wire 1 ^" A $end
$var wire 1 _" B $end
$var wire 1 `" C $end
$var wire 1 a" CARRY $end
$var wire 1 b" SUM $end
$upscope $end
$scope module FA2_2 $end
$var wire 1 c" A $end
$var wire 1 d" B $end
$var wire 1 e" C $end
$var wire 1 f" CARRY $end
$var wire 1 g" SUM $end
$upscope $end
$scope module FA2_3 $end
$var wire 1 h" A $end
$var wire 1 i" B $end
$var wire 1 j" C $end
$var wire 1 k" CARRY $end
$var wire 1 l" SUM $end
$upscope $end
$scope module FA2_4 $end
$var wire 1 m" A $end
$var wire 1 n" B $end
$var wire 1 o" C $end
$var wire 1 l CARRY $end
$var wire 1 p" SUM $end
$upscope $end
$scope module FA3_0 $end
$var wire 1 q" A $end
$var wire 1 r" B $end
$var wire 1 s" C $end
$var wire 1 t" CARRY $end
$var wire 1 u" SUM $end
$upscope $end
$scope module FA3_1 $end
$var wire 1 v" A $end
$var wire 1 w" B $end
$var wire 1 x" C $end
$var wire 1 y" CARRY $end
$var wire 1 z" SUM $end
$upscope $end
$scope module FA3_2 $end
$var wire 1 {" A $end
$var wire 1 |" B $end
$var wire 1 }" C $end
$var wire 1 ~" CARRY $end
$var wire 1 !# SUM $end
$upscope $end
$scope module FA3_3 $end
$var wire 1 "# A $end
$var wire 1 ## B $end
$var wire 1 $# C $end
$var wire 1 k CARRY $end
$var wire 1 %# SUM $end
$upscope $end
$scope module FA4_0 $end
$var wire 1 &# A $end
$var wire 1 '# B $end
$var wire 1 (# C $end
$var wire 1 )# CARRY $end
$var wire 1 *# SUM $end
$upscope $end
$scope module FA4_1 $end
$var wire 1 +# A $end
$var wire 1 ,# B $end
$var wire 1 -# C $end
$var wire 1 .# CARRY $end
$var wire 1 /# SUM $end
$upscope $end
$scope module FA4_2 $end
$var wire 1 0# A $end
$var wire 1 1# B $end
$var wire 1 2# C $end
$var wire 1 j CARRY $end
$var wire 1 3# SUM $end
$upscope $end
$scope module FA5_0 $end
$var wire 1 4# A $end
$var wire 1 5# B $end
$var wire 1 6# C $end
$var wire 1 r CARRY $end
$var wire 1 7# SUM $end
$upscope $end
$scope module FA5_1 $end
$var wire 1 8# A $end
$var wire 1 9# B $end
$var wire 1 r C $end
$var wire 1 i CARRY $end
$var wire 1 b SUM $end
$upscope $end
$scope module FA6_0 $end
$var wire 1 b A $end
$var wire 1 :# B $end
$var wire 1 ;# C $end
$var wire 1 h CARRY $end
$var wire 1 <# SUM $end
$upscope $end
$upscope $end
$scope module org $end
$var wire 8 =# RESULT [7:0] $end
$var wire 8 ># DATA2 [7:0] $end
$var wire 8 ?# DATA1 [7:0] $end
$upscope $end
$upscope $end
$scope module control_inst $end
$var wire 8 @# OPCODE [7:0] $end
$var reg 3 A# ALUOP [2:0] $end
$var reg 1 > BEQ $end
$var reg 1 = BNEQ $end
$var reg 1 ; IMM $end
$var reg 1 9 J $end
$var reg 1 * SIGN $end
$var reg 1 ) WRITEENABLE $end
$upscope $end
$scope module logic_inst $end
$var wire 1 > BEQ $end
$var wire 1 = BNEQ $end
$var wire 1 9 J $end
$var wire 1 8 OUTPUT $end
$var wire 1 ' ZERO $end
$upscope $end
$scope module mux1 $end
$var wire 1 * SELECT $end
$var wire 8 B# DATA2 [7:0] $end
$var wire 8 C# DATA1 [7:0] $end
$var reg 8 D# OUTPUT [7:0] $end
$upscope $end
$scope module mux2 $end
$var wire 8 E# DATA1 [7:0] $end
$var wire 8 F# DATA2 [7:0] $end
$var wire 1 ; SELECT $end
$var reg 8 G# OUTPUT [7:0] $end
$upscope $end
$scope module mux_32_inst $end
$var wire 32 H# DATA1 [31:0] $end
$var wire 1 8 SELECT $end
$var wire 32 I# DATA2 [31:0] $end
$var reg 32 J# OUTPUT [31:0] $end
$upscope $end
$scope module pc1 $end
$var wire 1 # CLK $end
$var wire 32 K# NEW_PC [31:0] $end
$var wire 1 $ RESET $end
$var reg 32 L# PC [31:0] $end
$var reg 32 M# PCreg [31:0] $end
$upscope $end
$scope module reg_file_inst $end
$var wire 1 # CLK $end
$var wire 8 N# IN [7:0] $end
$var wire 3 O# INADDRESS [2:0] $end
$var wire 8 P# OUT1 [7:0] $end
$var wire 3 Q# OUT1ADDRESS [2:0] $end
$var wire 8 R# OUT2 [7:0] $end
$var wire 3 S# OUT2ADDRESS [2:0] $end
$var wire 1 $ RESET $end
$var wire 1 ) WRITE $end
$upscope $end
$scope module shift_2_inst $end
$var wire 32 T# OUTPUT [31:0] $end
$var wire 32 U# INPUT [31:0] $end
$upscope $end
$scope module signextent_inst $end
$var wire 8 V# INPUT [7:0] $end
$var wire 32 W# OUTPUT [31:0] $end
$upscope $end
$scope module twos_inst $end
$var wire 8 X# DATA2 [7:0] $end
$var wire 8 Y# OUTPUT [7:0] $end
$upscope $end
$upscope $end
$upscope $end
$scope module cpu_tb $end
$scope module mycpu $end
$scope module reg_file_inst $end
$var reg 8 Z# \REGISTER[0] [7:0] $end
$upscope $end
$upscope $end
$upscope $end
$scope module cpu_tb $end
$scope module mycpu $end
$scope module reg_file_inst $end
$var reg 8 [# \REGISTER[1] [7:0] $end
$upscope $end
$upscope $end
$upscope $end
$scope module cpu_tb $end
$scope module mycpu $end
$scope module reg_file_inst $end
$var reg 8 \# \REGISTER[2] [7:0] $end
$upscope $end
$upscope $end
$upscope $end
$scope module cpu_tb $end
$scope module mycpu $end
$scope module reg_file_inst $end
$var reg 8 ]# \REGISTER[3] [7:0] $end
$upscope $end
$upscope $end
$upscope $end
$scope module cpu_tb $end
$scope module mycpu $end
$scope module reg_file_inst $end
$var reg 8 ^# \REGISTER[4] [7:0] $end
$upscope $end
$upscope $end
$upscope $end
$scope module cpu_tb $end
$scope module mycpu $end
$scope module reg_file_inst $end
$var reg 8 _# \REGISTER[5] [7:0] $end
$upscope $end
$upscope $end
$upscope $end
$scope module cpu_tb $end
$scope module mycpu $end
$scope module reg_file_inst $end
$var reg 8 `# \REGISTER[6] [7:0] $end
$upscope $end
$upscope $end
$upscope $end
$scope module cpu_tb $end
$scope module mycpu $end
$scope module reg_file_inst $end
$var reg 8 a# \REGISTER[7] [7:0] $end
$upscope $end
$upscope $end
$upscope $end
$enddefinitions $end
$comment Show the parameter values. $end
$dumpall
$end
#0
$dumpvars
bx a#
bx `#
bx _#
bx ^#
bx ]#
bx \#
bx [#
bx Z#
bx Y#
bx X#
bx W#
bx V#
bx U#
bx00 T#
bx S#
bx R#
bx Q#
bx P#
bx O#
bx N#
bx M#
bx L#
bx K#
bx J#
bx I#
bx H#
bx G#
bx F#
bx E#
bx D#
bx C#
bx B#
bx A#
bx @#
bx ?#
bx >#
bx =#
x<#
0;#
x:#
x9#
x8#
x7#
06#
x5#
x4#
x3#
x2#
x1#
x0#
x/#
x.#
x-#
x,#
x+#
x*#
x)#
0(#
x'#
x&#
x%#
x$#
x##
x"#
x!#
x~"
x}"
x|"
x{"
xz"
xy"
xx"
xw"
xv"
xu"
xt"
0s"
xr"
xq"
xp"
xo"
xn"
xm"
xl"
xk"
xj"
xi"
xh"
xg"
xf"
xe"
xd"
xc"
xb"
xa"
x`"
x_"
x^"
x]"
x\"
0["
xZ"
xY"
xX"
xW"
xV"
xU"
xT"
xS"
xR"
xQ"
xP"
xO"
xN"
xM"
xL"
xK"
xJ"
xI"
xH"
xG"
xF"
xE"
xD"
xC"
xB"
xA"
x@"
x?"
0>"
x="
x<"
x;"
x:"
x9"
x8"
x7"
x6"
x5"
x4"
x3"
x2"
x1"
x0"
x/"
x."
x-"
x,"
x+"
x*"
x)"
x("
x'"
x&"
x%"
x$"
x#"
x""
x!"
x~
x}
x|
x{
0z
xy
xx
bx w
bx v
bx u
bx t
bx s
xr
bx q
bx p
bx o
xn
xm
xl
xk
xj
xi
xh
bx g
bx f
bx e
bx d
bx c
xb
bx a
bx `
bx _
bx ^
bx ]
bx \
bx [
bx Z
bx Y
bx X
bx W
bx V
bx U
bx T
bx S
bx R
bx Q
bx P
bx O
bx N
bx M
bx L
bx K
bx J
bx I
bx H
bx G
bx F
bx E
bx D
bx C
bx B
bx00 A
bx @
bx ?
x>
x=
bx <
x;
bx :
x9
x8
bx 7
bx 6
bx 5
bx 4
bx 3
bx 2
bx 1
bx 0
bx /
bx .
bx -
bx ,
bx00 +
x*
x)
bx (
x'
bx &
b1000 %
1$
0#
bx "
bx !
$end
#4
1#
#5
b0 !
b0 1
b0 J#
b0 K#
b0 a#
b0 `#
b0 _#
b0 ^#
b0 ]#
b0 \#
b0 [#
b0 Z#
b0 7
b0 B
b0 I#
b0 L#
b0 M#
0$
#7
b0 /
b0 Q#
b1 (
b1 O#
b10 .
b10 S#
b100 +
b100 A
b100 T#
b0 5
b0 @#
b10 :
b10 E#
b1 <
b1 U#
b1 W#
b1 6
b1 V#
b10000000000000010 "
b10000000000000010 &
#8
0i
08#
b0x c
03#
0j
02#
0.#
00#
0+#
0%#
b0x d
0!#
0$#
0}"
0k
0~"
0y"
0v"
0"#
0{"
0g"
0p"
b0x e
0l"
0e"
0o"
0j"
0a"
0l
0k"
0f"
0^"
0J"
0m"
0h"
0c"
0H"
0X"
0T"
b0x f
0O"
0D"
0W"
0R"
0M"
0m
0S"
0N"
0I"
0A"
0("
0&"
0U"
0P"
0K"
0F"
0""
0;"
07"
02"
b0x g
0-"
0-#
0x"
0`"
0C"
0:"
05"
00"
0+"
0!"
0h
0r
b0 s
0)#
b0 t
0t"
b0 u
0\"
b0 v
0?"
0n
06"
01"
0,"
0'"
b0 w
0{
0:#
05#
01#
0'#
0##
0|"
0r"
0n"
0i"
0d"
0Z"
0V"
0Q"
0L"
0G"
0="
09"
08"
04"
03"
0/"
0."
0*"
0)"
0%"
0$"
0}
0y
bx0 o
b0xxxxxx J
b0xxxxxx X
bx00 L
bx00 R
08
b10 S
b10 V
b10 P
b10 3
b10 M
b10 Z
b10 ]
b10 `
b10 p
b10 >#
b10 G#
0=
0>
09
b0 @
b0 I
b0 A#
1)
0*
1;
0#
#9
07#
0*#
0u"
0]"
0@"
0<#
04#
0&#
0q"
0Y"
0<"
0b
b0 c
0/#
b0 d
0z"
b0 e
0b"
b0 f
0E"
b0 g
0#"
b0 o
0|
09#
0,#
0w"
0_"
0B"
0~
0x
0'
b10 ?
b10 O
b10 N#
b0 L
b0 R
b0 K
b0 U
b0 J
b0 X
b0 2
b0 D#
b0 F#
bx1x D
bx1x =#
b0x0 G
b0x0 \
b10 F
b10 _
b100 0
b100 C
b100 H#
b0 -
b0 N
b0 Q
b0 T
b0 W
b0 [
b0 ^
b0 q
b0 ?#
b0 P#
b0 ,
b0 B#
b0 R#
b0 X#
#10
b10 D
b10 =#
b0 G
b0 \
b0 4
b0 C#
b0 Y#
#11
b10 H
b10 Y
#12
b0 E
b0 a
1#
#13
b100 !
b100 1
b100 J#
b100 K#
b100 7
b100 B
b100 I#
b100 L#
b100 M#
b10 [#
#15
b0 S
b0 V
b0 P
b10 (
b10 O#
b0 .
b0 S#
b1000 3
b1000 M
b1000 Z
b1000 ]
b1000 `
b1000 p
b1000 >#
b1000 G#
b1000 +
b1000 A
b1000 T#
b1000 :
b1000 E#
b10 <
b10 U#
b10 W#
b10 6
b10 V#
b1000 0
b1000 C
b1000 H#
b100000000000001000 "
b100000000000001000 &
#16
b1000 ?
b1000 O
b1000 N#
b1000 D
b1000 =#
b1000 F
b1000 _
0#
#17
b1100 0
b1100 C
b1100 H#
b1000 H
b1000 Y
#20
1#
#21
b1000 !
b1000 1
b1000 J#
b1000 K#
b1000 \#
b1000 7
b1000 B
b1000 I#
b1000 L#
b1000 M#
#23
b10 S
b10 V
b10 P
b1 /
b1 Q#
b11 (
b11 O#
b10 .
b10 S#
b10 3
b10 M
b10 Z
b10 ]
b10 `
b10 p
b10 >#
b10 G#
b1100 +
b1100 A
b1100 T#
b1001 5
b1001 @#
b10 :
b10 E#
b11 <
b11 U#
b11 W#
b11 6
b11 V#
b10000 0
b10000 C
b10000 H#
b1001000000110000000100000010 "
b1001000000110000000100000010 &
#24
b0 S
b0 V
b0 P
b0 3
b0 M
b0 Z
b0 ]
b0 `
b0 p
b0 >#
b0 G#
1'
b0 ?
b0 O
b0 N#
b10 D
b10 =#
b110 @
b110 I
b110 A#
0;
b10 F
b10 _
0#
#25
b10000 o
1u"
1q"
b1 e
1b"
1^"
b10 f
1J"
1F"
b100 g
1-"
1*"
b1000 3
b1000 M
b1000 Z
b1000 ]
b1000 `
b1000 p
b1000 >#
b1000 G#
b10 L
b10 R
b10 K
b10 U
b10 J
b10 X
b1000 2
b1000 D#
b1000 F#
b0 D
b0 =#
b0 F
b0 _
b10100 0
b10100 C
b10100 H#
b10 -
b10 N
b10 Q
b10 T
b10 W
b10 [
b10 ^
b10 q
b10 ?#
b10 P#
b1000 ,
b1000 B#
b1000 R#
b1000 X#
#26
b1000 F
b1000 _
b1010 D
b1010 =#
b11111000 4
b11111000 C#
b11111000 Y#
#27
b1010 H
b1010 Y
#28
0'
b10000 ?
b10000 O
b10000 N#
b10000 E
b10000 a
1#
#29
b1100 !
b1100 1
b1100 J#
b1100 K#
b1100 7
b1100 B
b1100 I#
b1100 L#
b1100 M#
b10000 ]#
#31
b0 /
b0 Q#
b100 (
b100 O#
b101 .
b101 S#
b10000 +
b10000 A
b10000 T#
b0 5
b0 @#
b101 :
b101 E#
b100 <
b100 U#
b100 W#
b100 6
b100 V#
b11000 0
b11000 C
b11000 H#
b1000000000000000101 "
b1000000000000000101 &
#32
0u"
0q"
b0 e
0b"
1]"
0^"
1Y"
0J"
b1 f
1E"
0F"
1A"
0-"
b10 g
1("
b1010 o
1|
0*"
1%"
1y
b10000 K
b10000 U
b0 J
b0 X
b1000000 L
b1000000 R
b101 S
b101 V
b101 P
b1000 ?
b1000 O
b1000 N#
b101 3
b101 M
b101 Z
b101 ]
b101 `
b101 p
b101 >#
b101 G#
b0 @
b0 I
b0 A#
1;
0#
#33
0]"
0Y"
b0 f
0E"
0A"
b0 g
0("
b0 o
0|
0%"
0y
b101 ?
b101 O
b101 N#
b0 L
b0 R
b0 K
b0 U
b0 2
b0 D#
b0 F#
b111 D
b111 =#
b101 F
b101 _
b11100 0
b11100 C
b11100 H#
b0 -
b0 N
b0 Q
b0 T
b0 W
b0 [
b0 ^
b0 q
b0 ?#
b0 P#
b0 ,
b0 B#
b0 R#
b0 X#
#34
b101 D
b101 =#
b0 4
b0 C#
b0 Y#
#35
b101 H
b101 Y
#36
b0 E
b0 a
1#
#37
b10000 !
b10000 1
b10000 J#
b10000 K#
b101 ^#
b10000 7
b10000 B
b10000 I#
b10000 L#
b10000 M#
#39
b100 S
b100 V
b100 P
b1 /
b1 Q#
b101 (
b101 O#
b100 .
b100 S#
b100 3
b100 M
b100 Z
b100 ]
b100 `
b100 p
b100 >#
b100 G#
b10100 +
b10100 A
b10100 T#
b1001 5
b1001 @#
b100 :
b100 E#
b101 <
b101 U#
b101 W#
b101 6
b101 V#
b100000 0
b100000 C
b100000 H#
b1001000001010000000100000100 "
b1001000001010000000100000100 &
#40
b0 S
b0 V
b0 P
b0 3
b0 M
b0 Z
b0 ]
b0 `
b0 p
b0 >#
b0 G#
1'
b0 ?
b0 O
b0 N#
b100 D
b100 =#
b110 @
b110 I
b110 A#
0;
b100 F
b100 _
0#
#41
1]"
1Y"
b1 f
1E"
1A"
b10 g
1("
b1010 o
1|
1%"
1y
b101 S
b101 V
b101 P
b101 3
b101 M
b101 Z
b101 ]
b101 `
b101 p
b101 >#
b101 G#
b1000000 L
b1000000 R
b10000 K
b10000 U
b0 J
b0 X
b101 2
b101 D#
b101 F#
b0 D
b0 =#
b0 F
b0 _
b100100 0
b100100 C
b100100 H#
b10 -
b10 N
b10 Q
b10 T
b10 W
b10 [
b10 ^
b10 q
b10 ?#
b10 P#
b101 ,
b101 B#
b101 R#
b101 X#
#42
b101 F
b101 _
b111 D
b111 =#
b11111011 4
b11111011 C#
b11111011 Y#
#43
b111 H
b111 Y
#44
0'
b1010 ?
b1010 O
b1010 N#
b1010 E
b1010 a
1#
#45
b10100 !
b10100 1
b10100 J#
b10100 K#
b10100 7
b10100 B
b10100 I#
b10100 L#
b10100 M#
b1010 _#
#47
b10 /
b10 Q#
b110 (
b110 O#
b10 .
b10 S#
b11000 +
b11000 A
b11000 T#
b10 :
b10 E#
b110 <
b110 U#
b110 W#
b110 6
b110 V#
b101000 0
b101000 C
b101000 H#
b1001000001100000001000000010 "
b1001000001100000001000000010 &
#48
0#
#49
17#
14#
b1 c
1/#
0*#
1+#
0u"
1!#
0&#
0Y"
b10 d
0z"
0q"
b0 f
0E"
1{"
0b"
1l"
0v"
0`"
0A"
b100 e
0g"
0]"
b0 u
0\"
b0 g
0("
b1000000 o
0|
1i"
b1000 J
b1000 X
b0 S
b0 V
b0 P
0d"
0Z"
0%"
0y
b1000 3
b1000 M
b1000 Z
b1000 ]
b1000 `
b1000 p
b1000 >#
b1000 G#
b1000 L
b1000 R
b1000 K
b1000 U
b1000 2
b1000 D#
b1000 F#
b101100 0
b101100 C
b101100 H#
b1000 -
b1000 N
b1000 Q
b1000 T
b1000 W
b1000 [
b1000 ^
b1000 q
b1000 ?#
b1000 P#
b1000 ,
b1000 B#
b1000 R#
b1000 X#
#50
b1000 G
b1000 \
b1000 F
b1000 _
b1000 D
b1000 =#
b11111000 4
b11111000 C#
b11111000 Y#
#51
b10000 H
b10000 Y
#52
b1000000 ?
b1000000 O
b1000000 N#
b1000000 E
b1000000 a
1#
#53
b11000 !
b11000 1
b11000 J#
b11000 K#
b1000000 `#
b11000 7
b11000 B
b11000 I#
b11000 L#
b11000 M#
#55
b0 /
b0 Q#
b1 (
b1 O#
b101 .
b101 S#
b100 +
b100 A
b100 T#
b0 5
b0 @#
b101 :
b101 E#
b1 <
b1 U#
b1 W#
b1 6
b1 V#
b110000 0
b110000 C
b110000 H#
b10000000000000101 "
b10000000000000101 &
#56
07#
04#
b0 c
0/#
1*#
0+#
1&#
0!#
b1 d
1z"
0{"
1v"
0l"
b10 e
1g"
b101000 o
1]"
0i"
1d"
1Z"
b1000000 K
b1000000 U
b0 J
b0 X
b0 L
b0 R
b101 S
b101 V
b101 P
b1000 ?
b1000 O
b1000 N#
b101 3
b101 M
b101 Z
b101 ]
b101 `
b101 p
b101 >#
b101 G#
b0 @
b0 I
b0 A#
1;
0#
#57
0*#
0&#
b0 d
0z"
0v"
b0 e
0g"
b0 o
0]"
0d"
0Z"
b101 ?
b101 O
b101 N#
b0 K
b0 U
b1010 2
b1010 D#
b1010 F#
b1101 D
b1101 =#
b0 G
b0 \
b101 F
b101 _
b11100 0
b11100 C
b11100 H#
b0 -
b0 N
b0 Q
b0 T
b0 W
b0 [
b0 ^
b0 q
b0 ?#
b0 P#
b1010 ,
b1010 B#
b1010 R#
b1010 X#
#58
b101 D
b101 =#
b11110110 4
b11110110 C#
b11110110 Y#
#59
b101 H
b101 Y
#60
b0 E
b0 a
1#
#61
b11100 !
b11100 1
b11100 J#
b11100 K#
b11100 7
b11100 B
b11100 I#
b11100 L#
b11100 M#
b101 [#
#63
b10 S
b10 V
b10 P
b10 (
b10 O#
b10 .
b10 S#
b10 3
b10 M
b10 Z
b10 ]
b10 `
b10 p
b10 >#
b10 G#
b1000 +
b1000 A
b1000 T#
b10 :
b10 E#
b10 <
b10 U#
b10 W#
b10 6
b10 V#
b100000 0
b100000 C
b100000 H#
b100000000000000010 "
b100000000000000010 &
#64
b10 ?
b10 O
b10 N#
b10 D
b10 =#
b10 F
b10 _
0#
#65
b1000 2
b1000 D#
b1000 F#
b100100 0
b100100 C
b100100 H#
b1000 ,
b1000 B#
b1000 R#
b1000 X#
b10 H
b10 Y
#66
b11111000 4
b11111000 C#
b11111000 Y#
#68
1#
#69
b100000 !
b100000 1
b100000 J#
b100000 K#
b10 \#
b100000 7
b100000 B
b100000 I#
b100000 L#
b100000 M#
#71
b1 /
b1 Q#
b1 (
b1 O#
b100 +
b100 A
b100 T#
b1000 5
b1000 @#
b1 <
b1 U#
b1 W#
b1 6
b1 V#
b10 2
b10 D#
b10 F#
b101000 0
b101000 C
b101000 H#
b1000000000010000000100000010 "
b1000000000010000000100000010 &
b10 ,
b10 B#
b10 R#
b10 X#
#72
b101000 !
b101000 1
b101000 J#
b101000 K#
18
b110 S
b110 V
b110 P
b11111110 3
b11111110 M
b11111110 Z
b11111110 ]
b11111110 `
b11111110 p
b11111110 >#
b11111110 G#
b11111110 2
b11111110 D#
b11111110 F#
1=
b1 @
b1 I
b1 A#
0)
1*
0;
b11111110 4
b11111110 C#
b11111110 Y#
0#
#73
1<#
1b
17#
18#
14#
13#
b11 c
1/#
1*#
10#
1+#
1&#
1%#
1!#
b111 d
1z"
1u"
1"#
1{"
1v"
1q"
1W"
1R"
1M"
1H"
1p"
1l"
1g"
b1111 e
1b"
0]"
1m
1S"
1N"
1I"
b11110 v
1D"
1@"
1m"
1h"
1c"
1^"
0Y"
1U"
1P"
1K"
1F"
1A"
1<"
1X"
1T"
1O"
1J"
b11110 f
0E"
1;"
17"
12"
1-"
1("
b111111 g
1#"
b11110110 o
1|
1V"
1Q"
1L"
1G"
1B"
18"
13"
1."
1)"
1$"
1}
1x
b100100 !
b100100 1
b100100 J#
b100100 K#
b1000000 L
b1000000 R
b10100 K
b10100 U
b101000 7
b101000 B
b101000 I#
b101000 L#
b101000 M#
b11111110 D
b11111110 =#
b11111110 F
b11111110 _
b100100 0
b100100 C
b100100 H#
b101 -
b101 N
b101 Q
b101 T
b101 W
b101 [
b101 ^
b101 q
b101 ?#
b101 P#
#74
b100100 7
b100100 B
b100100 I#
b100100 L#
b100100 M#
b11111111 D
b11111111 =#
b100 G
b100 \
#75
b0 /
b0 Q#
b11 (
b11 O#
b111 .
b111 S#
b1100 +
b1100 A
b1100 T#
b101000 !
b101000 1
b101000 J#
b101000 K#
b0 5
b0 @#
b111 :
b111 E#
b11 <
b11 U#
b11 W#
b11 6
b11 V#
b11 ?
b11 O
b11 N#
b101000 0
b101000 C
b101000 H#
b110000000000000111 "
b110000000000000111 &
b11 H
b11 Y
#76
0<#
0b
07#
08#
04#
03#
b0 c
0/#
1*#
0u"
00#
0+#
1&#
0q"
0%#
0!#
b1 d
1z"
0b"
0W"
0R"
0"#
0{"
1v"
0m
0S"
0N"
0^"
0p"
0l"
b10 e
1g"
0J"
0m"
0h"
1c"
1C"
0U"
0P"
0K"
0F"
0A"
0X"
0T"
b100 f
1O"
0@"
b111 v
1?"
0;"
07"
02"
0-"
b1 g
0("
0V"
0Q"
0L"
1="
08"
03"
0."
0)"
0$"
b100011 o
b1010 K
b1010 U
b10000000 L
b10000000 R
08
b111 S
b111 V
b111 P
b10 2
b10 D#
b10 F#
b111 3
b111 M
b111 Z
b111 ]
b111 `
b111 p
b111 >#
b111 G#
b11111110 ?
b11111110 O
b11111110 N#
b101000 7
b101000 B
b101000 I#
b101000 L#
b101000 M#
0=
b0 @
b0 I
b0 A#
1)
0*
1;
b11110110 E
b11110110 a
1#
