Part5/cpu_wavedata.vcd
$date
	Wed Jun 18 09:20:00 2025
$end
$version
	Icarus Verilog
$end
$timescale
	1s
$end
$scope module cpu_tb $end
$var wire 32 ! PC [31:0] $end
$var wire 32 " INSTRUCTION [31:0] $end
$var reg 1 # CLK $end
$var reg 1 $ RESET $end
$var integer 32 % i [31:0] $end
$scope module mycpu $end
$var wire 1 # CLK $end
$var wire 32 & INSTRUCTION [31:0] $end
$var wire 1 $ RESET $end
$var wire 1 ' ZERO_OUT $end
$var wire 3 ( WRITEREG [2:0] $end
$var wire 1 ) WRITEENABLE $end
$var wire 1 * SIGN $end
$var wire 32 + SHIFT_OUT [31:0] $end
$var wire 8 , REGOUT2 [7:0] $end
$var wire 8 - REGOUT1 [7:0] $end
$var wire 3 . READREG2 [2:0] $end
$var wire 3 / READREG1 [2:0] $end
$var wire 32 0 PC_NEW [31:0] $end
$var wire 32 1 PC [31:0] $end
$var wire 8 2 OUT_SIGN [7:0] $end
$var wire 8 3 OUT_IMM [7:0] $end
$var wire 8 4 OUT2_S [7:0] $end
$var wire 8 5 OPCODE [7:0] $end
$var wire 8 6 OFFSET [7:0] $end
$var wire 32 7 MUX_32_IN [31:0] $end
$var wire 1 8 LOGIC_OUT $end
$var wire 1 9 JUMP_OUT $end
$var wire 8 : IMMEDIATE [7:0] $end
$var wire 1 ; IMM $end
$var wire 32 < EXT_OUT [31:0] $end
$var wire 1 = BEQ_OUT $end
$var wire 8 > ALURESULT [7:0] $end
$var wire 3 ? ALUOP [2:0] $end
$scope module adder_inst $end
$var wire 32 @ DATA2 [31:0] $end
$var wire 32 A DATA1 [31:0] $end
$var reg 32 B OUTPUT [31:0] $end
$upscope $end
$scope module alu_inst $end
$var wire 8 C or_out [7:0] $end
$var wire 8 D forward_out [7:0] $end
$var wire 8 E and_out [7:0] $end
$var wire 8 F add_out [7:0] $end
$var wire 1 ' ZERO $end
$var wire 3 G SELECT [2:0] $end
$var wire 8 H DATA2 [7:0] $end
$var wire 8 I DATA1 [7:0] $end
$var reg 8 J RESULT [7:0] $end
$scope module add $end
$var wire 8 K RESULT [7:0] $end
$var wire 8 L DATA2 [7:0] $end
$var wire 8 M DATA1 [7:0] $end
$upscope $end
$scope module andg $end
$var wire 8 N RESULT [7:0] $end
$var wire 8 O DATA2 [7:0] $end
$var wire 8 P DATA1 [7:0] $end
$upscope $end
$scope module fwd $end
$var wire 8 Q RESULT [7:0] $end
$var wire 8 R DATA2 [7:0] $end
$upscope $end
$scope module org $end
$var wire 8 S RESULT [7:0] $end
$var wire 8 T DATA2 [7:0] $end
$var wire 8 U DATA1 [7:0] $end
$upscope $end
$upscope $end
$scope module control_inst $end
$var wire 8 V OPCODE [7:0] $end
$var reg 3 W ALUOP [2:0] $end
$var reg 1 = BEQ $end
$var reg 1 ; IMM $end
$var reg 1 9 J $end
$var reg 1 * SIGN $end
$var reg 1 ) WRITEENABLE $end
$upscope $end
$scope module logic_inst $end
$var wire 1 = BEQ $end
$var wire 1 9 J $end
$var wire 1 8 OUTPUT $end
$var wire 1 ' ZERO $end
$upscope $end
$scope module mux1 $end
$var wire 1 * SELECT $end
$var wire 8 X DATA2 [7:0] $end
$var wire 8 Y DATA1 [7:0] $end
$var reg 8 Z OUTPUT [7:0] $end
$upscope $end
$scope module mux2 $end
$var wire 8 [ DATA1 [7:0] $end
$var wire 8 \ DATA2 [7:0] $end
$var wire 1 ; SELECT $end
$var reg 8 ] OUTPUT [7:0] $end
$upscope $end
$scope module mux_32_inst $end
$var wire 32 ^ DATA1 [31:0] $end
$var wire 1 8 SELECT $end
$var wire 32 _ DATA2 [31:0] $end
$var reg 32 ` OUTPUT [31:0] $end
$upscope $end
$scope module pc1 $end
$var wire 1 # CLK $end
$var wire 32 a NEW_PC [31:0] $end
$var wire 1 $ RESET $end
$var reg 32 b PC [31:0] $end
$var reg 32 c PCreg [31:0] $end
$upscope $end
$scope module reg_file_inst $end
$var wire 1 # CLK $end
$var wire 8 d IN [7:0] $end
$var wire 3 e INADDRESS [2:0] $end
$var wire 8 f OUT1 [7:0] $end
$var wire 3 g OUT1ADDRESS [2:0] $end
$var wire 8 h OUT2 [7:0] $end
$var wire 3 i OUT2ADDRESS [2:0] $end
$var wire 1 $ RESET $end
$var wire 1 ) WRITE $end
$upscope $end
$scope module shift_2_inst $end
$var wire 32 j OUTPUT [31:0] $end
$var wire 32 k INPUT [31:0] $end
$upscope $end
$scope module signextent_inst $end
$var wire 8 l INPUT [7:0] $end
$var wire 32 m OUTPUT [31:0] $end
$upscope $end
$scope module twos_inst $end
$var wire 8 n DATA2 [7:0] $end
$var wire 8 o OUTPUT [7:0] $end
$upscope $end
$upscope $end
$upscope $end
$scope module cpu_tb $end
$scope module mycpu $end
$scope module reg_file_inst $end
$var reg 8 p \REGISTER[0] [7:0] $end
$upscope $end
$upscope $end
$upscope $end
$scope module cpu_tb $end
$scope module mycpu $end
$scope module reg_file_inst $end
$var reg 8 q \REGISTER[1] [7:0] $end
$upscope $end
$upscope $end
$upscope $end
$scope module cpu_tb $end
$scope module mycpu $end
$scope module reg_file_inst $end
$var reg 8 r \REGISTER[2] [7:0] $end
$upscope $end
$upscope $end
$upscope $end
$scope module cpu_tb $end
$scope module mycpu $end
$scope module reg_file_inst $end
$var reg 8 s \REGISTER[3] [7:0] $end
$upscope $end
$upscope $end
$upscope $end
$scope module cpu_tb $end
$scope module mycpu $end
$scope module reg_file_inst $end
$var reg 8 t \REGISTER[4] [7:0] $end
$upscope $end
$upscope $end
$upscope $end
$scope module cpu_tb $end
$scope module mycpu $end
$scope module reg_file_inst $end
$var reg 8 u \REGISTER[5] [7:0] $end
$upscope $end
$upscope $end
$upscope $end
$scope module cpu_tb $end
$scope module mycpu $end
$scope module reg_file_inst $end
$var reg 8 v \REGISTER[6] [7:0] $end
$upscope $end
$upscope $end
$upscope $end
$scope module cpu_tb $end
$scope module mycpu $end
$scope module reg_file_inst $end
$var reg 8 w \REGISTER[7] [7:0] $end
$upscope $end
$upscope $end
$upscope $end
$enddefinitions $end
$comment Show the parameter values. $end
$dumpall
$end
#0
$dumpvars
bx w
bx v
bx u
bx t
bx s
bx r
bx q
bx p
bx o
bx n
bx m
bx l
bx k
bx00 j
bx i
bx h
bx g
bx f
bx e
bx d
bx c
bx b
bx a
bx `
bx _
bx ^
bx ]
bx \
bx [
bx Z
bx Y
bx X
bx W
bx V
bx U
bx T
bx S
bx R
bx Q
bx P
bx O
bx N
bx M
bx L
bx K
bx J
bx I
bx H
bx G
bx F
bx E
bx D
bx C
bx B
bx A
bx00 @
bx ?
bx >
x=
bx <
x;
bx :
x9
x8
bx 7
bx 6
bx 5
bx 4
bx 3
bx 2
bx 1
bx 0
bx /
bx .
bx -
bx ,
bx00 +
x*
x)
bx (
x'
bx &
b1000 %
1$
0#
bx "
bx !
$end
#4
1#
#5
b0 !
b0 1
b0 `
b0 a
b0 w
b0 v
b0 u
b0 t
b0 s
b0 r
b0 q
b0 p
b0 7
b0 A
b0 _
b0 b
b0 c
0$
#7
b0 /
b0 g
b100 (
b100 e
b10 .
b10 i
b10000 +
b10000 @
b10000 j
b0 5
b0 V
b1010 :
b1010 [
b100 <
b100 k
b100 m
b100 6
b100 l
b1000000000000001010 "
b1000000000000001010 &
#8
08
b1010 3
b1010 H
b1010 L
b1010 O
b1010 R
b1010 T
b1010 ]
0=
09
b0 ?
b0 G
b0 W
1)
0*
1;
0#
#9
0'
b1010 >
b1010 J
b1010 d
b0 2
b0 Z
b0 \
bx1x1x C
bx1x1x S
b0x0x0 E
b0x0x0 N
b1010 D
b1010 Q
b10000 0
b10000 B
b10000 ^
b0 -
b0 I
b0 M
b0 P
b0 U
b0 f
b0 ,
b0 X
b0 h
b0 n
#10
b1010 C
b1010 S
b0 E
b0 N
b0 4
b0 Y
b0 o
#11
b1010 F
b1010 K
#12
1#
#13
b100 !
b100 1
b100 `
b100 a
b100 7
b100 A
b100 _
b100 b
b100 c
b1010 t
#15
b101 (
b101 e
b1 .
b1 i
b1 3
b1 H
b1 L
b1 O
b1 R
b1 T
b1 ]
b10100 +
b10100 @
b10100 j
b1 :
b1 [
b101 <
b101 k
b101 m
b101 6
b101 l
b10100 0
b10100 B
b10100 ^
b1010000000000000001 "
b1010000000000000001 &
#16
b1 >
b1 J
b1 d
b1 C
b1 S
b1 D
b1 Q
0#
#17
b11000 0
b11000 B
b11000 ^
b1 F
b1 K
#20
1#
#21
b1000 !
b1000 1
b1000 `
b1000 a
b1 u
b1000 7
b1000 A
b1000 _
b1000 b
b1000 c
#23
b110 (
b110 e
b11000 +
b11000 @
b11000 j
b110 <
b110 k
b110 m
b110 6
b110 l
b11100 0
b11100 B
b11100 ^
b1100000000000000001 "
b1100000000000000001 &
#24
0#
#25
b100000 0
b100000 B
b100000 ^
#28
1#
#29
b1100 !
b1100 1
b1100 `
b1100 a
b1100 7
b1100 A
b1100 _
b1100 b
b1100 c
b1 v
#31
b111 (
b111 e
b1001 3
b1001 H
b1001 L
b1001 O
b1001 R
b1001 T
b1001 ]
b11100 +
b11100 @
b11100 j
b1001 :
b1001 [
b111 <
b111 k
b111 m
b111 6
b111 l
b100100 0
b100100 B
b100100 ^
b1110000000000001001 "
b1110000000000001001 &
#32
b1001 >
b1001 J
b1001 d
b1001 C
b1001 S
b1001 D
b1001 Q
0#
#33
b101000 0
b101000 B
b101000 ^
b1001 F
b1001 K
#36
1#
#37
b10000 !
b10000 1
b10000 `
b10000 a
b1001 w
b10000 7
b10000 A
b10000 _
b10000 b
b10000 c
#39
b100 /
b100 g
b100 (
b100 e
b101 .
b101 i
b101 3
b101 H
b101 L
b101 O
b101 R
b101 T
b101 ]
b10000 +
b10000 @
b10000 j
b11 5
b11 V
b101 :
b101 [
b100 <
b100 k
b100 m
b100 6
b100 l
b101100 0
b101100 B
b101100 ^
b11000001000000010000000101 "
b11000001000000010000000101 &
#40
b0 3
b0 H
b0 L
b0 O
b0 R
b0 T
b0 ]
b101 C
b101 S
b1 ?
b1 G
b1 W
1*
0;
b101 D
b101 Q
0#
#41
b0 C
b0 S
b0 D
b0 Q
b100000 0
b100000 B
b100000 ^
b1010 -
b1010 I
b1010 M
b1010 P
b1010 U
b1010 f
b1 ,
b1 X
b1 h
b1 n
#42
b11111111 3
b11111111 H
b11111111 L
b11111111 O
b11111111 R
b11111111 T
b11111111 ]
b11111111 2
b11111111 Z
b11111111 \
b1010 C
b1010 S
b11111111 4
b11111111 Y
b11111111 o
#43
b11111111 C
b11111111 S
b1010 E
b1010 N
b11111111 D
b11111111 Q
#44
1#
#45
b10100 !
b10100 1
b10100 `
b10100 a
b10100 7
b10100 A
b10100 _
b10100 b
b10100 c
b1001 t
#47
b101 /
b101 g
b1 (
b1 e
b110 .
b110 i
b100 +
b100 @
b100 j
b111 5
b111 V
b110 :
b110 [
b1 <
b1 k
b1 m
b1 6
b1 l
b100100 0
b100100 B
b100100 ^
b111000000010000010100000110 "
b111000000010000010100000110 &
b1001 -
b1001 I
b1001 M
b1001 P
b1001 U
b1001 f
#48
0)
1=
b1001 E
b1001 N
0#
#49
b1000 >
b1000 J
b1000 d
b11000 0
b11000 B
b11000 ^
b1 -
b1 I
b1 M
b1 P
b1 U
b1 f
b1000 F
b1000 K
#50
b1 E
b1 N
#51
b11000 !
b11000 1
b11000 `
b11000 a
18
1'
b0 >
b0 J
b0 d
b0 F
b0 K
#52
1#
#53
b0 /
b0 g
b0 .
b0 i
b110 5
b110 V
b0 :
b0 [
b11000 7
b11000 A
b11000 _
b11000 b
b11000 c
b110000000010000000000000000 "
b110000000010000000000000000 &
#54
0=
19
#55
b11100 !
b11100 1
b11100 `
b11100 a
b0 -
b0 I
b0 M
b0 P
b0 U
b0 f
b0 ,
b0 X
b0 h
b0 n
b11100 0
b11100 B
b11100 ^
#56
b0 3
b0 H
b0 L
b0 O
b0 R
b0 T
b0 ]
b0 2
b0 Z
b0 \
b0 E
b0 N
b0 4
b0 Y
b0 o
0#
#57
b100 /
b100 g
b111 .
b111 i
b1 5
b1 V
b111 :
b111 [
b0 C
b0 S
b0 D
b0 Q
b1000000010000010000000111 "
b1000000010000010000000111 &
#58
b11000 !
b11000 1
b11000 `
b11000 a
08
09
b0 ?
b0 G
b0 W
1)
0*
#59
b1001 3
b1001 H
b1001 L
b1001 O
b1001 R
b1001 T
b1001 ]
b1001 2
b1001 Z
b1001 \
b1001 -
b1001 I
b1001 M
b1001 P
b1001 U
b1001 f
b1001 ,
b1001 X
b1001 h
b1001 n
#60
b0 /
b0 g
b0 .
b0 i
0'
b1001 >
b1001 J
b1001 d
b110 5
b110 V
b0 :
b0 [
b1001 E
b1001 N
b1001 D
b1001 Q
b1001 C
b1001 S
b11110111 4
b11110111 Y
b11110111 o
b110000000010000000000000000 "
b110000000010000000000000000 &
1#
#61
18
b11100 !
b11100 1
b11100 `
b11100 a
0)
19
b1001 q
b11100 7
b11100 A
b11100 _
b11100 b
b11100 c
b10010 F
b10010 K
#62
b0 3
b0 H
b0 L
b0 O
b0 R
b0 T
b0 ]
b0 2
b0 Z
b0 \
b0 -
b0 I
b0 M
b0 P
b0 U
b0 f
b0 ,
b0 X
b0 h
b0 n
#63
b100 /
b100 g
b111 .
b111 i
1'
b0 >
b0 J
b0 d
b100000 !
b100000 1
b100000 `
b100000 a
b1 5
b1 V
b111 :
b111 [
b0 C
b0 S
b0 D
b0 Q
b0 E
b0 N
b0 4
b0 Y
b0 o
b100000 0
b100000 B
b100000 ^
b1000000010000010000000111 "
b1000000010000010000000111 &
#64
b11100 !
b11100 1
b11100 `
b11100 a
08
09
1)
b0 F
b0 K
0#
#65
b1001 3
b1001 H
b1001 L
b1001 O
b1001 R
b1001 T
b1001 ]
b1001 2
b1001 Z
b1001 \
b1001 -
b1001 I
b1001 M
b1001 P
b1001 U
b1001 f
b1001 ,
b1001 X
b1001 h
b1001 n
#66
0'
b1001 >
b1001 J
b1001 d
b1001 E
b1001 N
b1001 D
b1001 Q
b1001 C
b1001 S
b11110111 4
b11110111 Y
b11110111 o
#67
b10010 F
b10010 K
#68
1#
#69
b100000 !
b100000 1
b100000 `
b100000 a
b100000 7
b100000 A
b100000 _
b100000 b
b100000 c
b1001 q
#71
bx /
bx g
bx (
bx e
bx .
bx i
bx00 +
bx00 @
bx00 j
bx 5
bx V
bx :
bx [
bx <
bx k
bx m
bx 6
bx l
b100100 0
b100100 B
b100100 ^
bx "
bx &
#72
0#
#73
bx 3
bx H
bx L
bx O
bx R
bx T
bx ]
bx 2
bx Z
bx \
bx 0
bx B
bx ^
bx -
bx I
bx M
bx P
bx U
bx f
bx ,
bx X
bx h
bx n
#74
x'
bx >
bx J
bx d
bx D
bx Q
bx C
bx S
bx E
bx N
bx 4
bx Y
bx o
#75
bx F
bx K
#76
1#
#77
b100100 !
b100100 1
b100100 `
b100100 a
b100100 7
b100100 A
b100100 _
b100100 b
b100100 c
#80
0#
#84
1#
#85
b101000 !
b101000 1
b101000 `
b101000 a
b101000 7
b101000 A
b101000 _
b101000 b
b101000 c
#88
0#
#92
1#
#93
b101100 !
b101100 1
b101100 `
b101100 a
b101100 7
b101100 A
b101100 _
b101100 b
b101100 c
#96
0#
#100
1#
#101
b110000 !
b110000 1
b110000 `
b110000 a
b110000 7
b110000 A
b110000 _
b110000 b
b110000 c
#104
0#
#108
1#
#109
b110100 !
b110100 1
b110100 `
b110100 a
b110100 7
b110100 A
b110100 _
b110100 b
b110100 c
#112
0#
#116
1#
#117
b111000 !
b111000 1
b111000 `
b111000 a
b111000 7
b111000 A
b111000 _
b111000 b
b111000 c
#120
0#
#124
1#
#125
b111100 !
b111100 1
b111100 `
b111100 a
b111100 7
b111100 A
b111100 _
b111100 b
b111100 c
#128
0#
#132
1#
#133
b1000000 !
b1000000 1
b1000000 `
b1000000 a
b1000000 7
b1000000 A
b1000000 _
b1000000 b
b1000000 c
#136
0#
#140
1#
#141
b1000100 !
b1000100 1
b1000100 `
b1000100 a
b1000100 7
b1000100 A
b1000100 _
b1000100 b
b1000100 c
#144
0#
#148
1#
#149
b1001000 !
b1001000 1
b1001000 `
b1001000 a
b1001000 7
b1001000 A
b1001000 _
b1001000 b
b1001000 c
#152
0#
#156
1#
#157
b1001100 !
b1001100 1
b1001100 `
b1001100 a
b1001100 7
b1001100 A
b1001100 _
b1001100 b
b1001100 c
#160
0#
#164
1#
#165
b1010000 !
b1010000 1
b1010000 `
b1010000 a
b1010000 7
b1010000 A
b1010000 _
b1010000 b
b1010000 c
#168
0#
#172
1#
#173
b1010100 !
b1010100 1
b1010100 `
b1010100 a
b1010100 7
b1010100 A
b1010100 _
b1010100 b
b1010100 c
#176
0#
#180
1#
#181
b1011000 !
b1011000 1
b1011000 `
b1011000 a
b1011000 7
b1011000 A
b1011000 _
b1011000 b
b1011000 c
#184
0#
#188
1#
#189
b1011100 !
b1011100 1
b1011100 `
b1011100 a
b1011100 7
b1011100 A
b1011100 _
b1011100 b
b1011100 c
#192
0#
#196
1#
#197
b1100000 !
b1100000 1
b1100000 `
b1100000 a
b1100000 7
b1100000 A
b1100000 _
b1100000 b
b1100000 c
#200
0#
#204
1#
#205
b1100100 !
b1100100 1
b1100100 `
b1100100 a
b1100100 7
b1100100 A
b1100100 _
b1100100 b
b1100100 c
#208
0#
#212
1#
#213
b1101000 !
b1101000 1
b1101000 `
b1101000 a
b1101000 7
b1101000 A
b1101000 _
b1101000 b
b1101000 c
#216
0#
#220
1#
#221
b1101100 !
b1101100 1
b1101100 `
b1101100 a
b1101100 7
b1101100 A
b1101100 _
b1101100 b
b1101100 c
#224
0#
#228
1#
#229
b1110000 !
b1110000 1
b1110000 `
b1110000 a
b1110000 7
b1110000 A
b1110000 _
b1110000 b
b1110000 c
#232
0#
#236
1#
#237
b1110100 !
b1110100 1
b1110100 `
b1110100 a
b1110100 7
b1110100 A
b1110100 _
b1110100 b
b1110100 c
#240
0#
#244
1#
#245
b1111000 !
b1111000 1
b1111000 `
b1111000 a
b1111000 7
b1111000 A
b1111000 _
b1111000 b
b1111000 c
#248
0#
#252
1#
#253
b1111100 !
b1111100 1
b1111100 `
b1111100 a
b1111100 7
b1111100 A
b1111100 _
b1111100 b
b1111100 c
#256
0#
#260
1#
#261
b10000000 !
b10000000 1
b10000000 `
b10000000 a
b10000000 7
b10000000 A
b10000000 _
b10000000 b
b10000000 c
#264
0#
#268
1#
#269
b10000100 !
b10000100 1
b10000100 `
b10000100 a
b10000100 7
b10000100 A
b10000100 _
b10000100 b
b10000100 c
#272
0#
#276
1#
#277
b10001000 !
b10001000 1
b10001000 `
b10001000 a
b10001000 7
b10001000 A
b10001000 _
b10001000 b
b10001000 c
#280
0#
#284
1#
#285
b10001100 !
b10001100 1
b10001100 `
b10001100 a
b10001100 7
b10001100 A
b10001100 _
b10001100 b
b10001100 c
#288
0#
#292
1#
#293
b10010000 !
b10010000 1
b10010000 `
b10010000 a
b10010000 7
b10010000 A
b10010000 _
b10010000 b
b10010000 c
#296
0#
#300
1#
#301
b10010100 !
b10010100 1
b10010100 `
b10010100 a
b10010100 7
b10010100 A
b10010100 _
b10010100 b
b10010100 c
#304
0#
#308
1#
#309
b10011000 !
b10011000 1
b10011000 `
b10011000 a
b10011000 7
b10011000 A
b10011000 _
b10011000 b
b10011000 c
#312
0#
#316
1#
#317
b10011100 !
b10011100 1
b10011100 `
b10011100 a
b10011100 7
b10011100 A
b10011100 _
b10011100 b
b10011100 c
#320
0#
#324
1#
#325
b10100000 !
b10100000 1
b10100000 `
b10100000 a
b10100000 7
b10100000 A
b10100000 _
b10100000 b
b10100000 c
#328
0#
#332
1#
#333
b10100100 !
b10100100 1
b10100100 `
b10100100 a
b10100100 7
b10100100 A
b10100100 _
b10100100 b
b10100100 c
#336
0#
#340
1#
#341
b10101000 !
b10101000 1
b10101000 `
b10101000 a
b10101000 7
b10101000 A
b10101000 _
b10101000 b
b10101000 c
#344
0#
#348
1#
#349
b10101100 !
b10101100 1
b10101100 `
b10101100 a
b10101100 7
b10101100 A
b10101100 _
b10101100 b
b10101100 c
#352
0#
#356
1#
#357
b10110000 !
b10110000 1
b10110000 `
b10110000 a
b10110000 7
b10110000 A
b10110000 _
b10110000 b
b10110000 c
#360
0#
#364
1#
#365
b10110100 !
b10110100 1
b10110100 `
b10110100 a
b10110100 7
b10110100 A
b10110100 _
b10110100 b
b10110100 c
#368
0#
#372
1#
#373
b10111000 !
b10111000 1
b10111000 `
b10111000 a
b10111000 7
b10111000 A
b10111000 _
b10111000 b
b10111000 c
#376
0#
#380
1#
#381
b10111100 !
b10111100 1
b10111100 `
b10111100 a
b10111100 7
b10111100 A
b10111100 _
b10111100 b
b10111100 c
#384
0#
#388
1#
#389
b11000000 !
b11000000 1
b11000000 `
b11000000 a
b11000000 7
b11000000 A
b11000000 _
b11000000 b
b11000000 c
#392
0#
#396
1#
#397
b11000100 !
b11000100 1
b11000100 `
b11000100 a
b11000100 7
b11000100 A
b11000100 _
b11000100 b
b11000100 c
#400
0#
#404
1#
#405
b11001000 !
b11001000 1
b11001000 `
b11001000 a
b11001000 7
b11001000 A
b11001000 _
b11001000 b
b11001000 c
#408
0#
#412
1#
#413
b11001100 !
b11001100 1
b11001100 `
b11001100 a
b11001100 7
b11001100 A
b11001100 _
b11001100 b
b11001100 c
#416
0#
#420
1#
#421
b11010000 !
b11010000 1
b11010000 `
b11010000 a
b11010000 7
b11010000 A
b11010000 _
b11010000 b
b11010000 c
#424
0#
#428
1#
#429
b11010100 !
b11010100 1
b11010100 `
b11010100 a
b11010100 7
b11010100 A
b11010100 _
b11010100 b
b11010100 c
#432
0#
#436
1#
#437
b11011000 !
b11011000 1
b11011000 `
b11011000 a
b11011000 7
b11011000 A
b11011000 _
b11011000 b
b11011000 c
#440
0#
#444
1#
#445
b11011100 !
b11011100 1
b11011100 `
b11011100 a
b11011100 7
b11011100 A
b11011100 _
b11011100 b
b11011100 c
#448
0#
#452
1#
#453
b11100000 !
b11100000 1
b11100000 `
b11100000 a
b11100000 7
b11100000 A
b11100000 _
b11100000 b
b11100000 c
#456
0#
#460
1#
#461
b11100100 !
b11100100 1
b11100100 `
b11100100 a
b11100100 7
b11100100 A
b11100100 _
b11100100 b
b11100100 c
#464
0#
#468
1#
#469
b11101000 !
b11101000 1
b11101000 `
b11101000 a
b11101000 7
b11101000 A
b11101000 _
b11101000 b
b11101000 c
#472
0#
#476
1#
#477
b11101100 !
b11101100 1
b11101100 `
b11101100 a
b11101100 7
b11101100 A
b11101100 _
b11101100 b
b11101100 c
#480
0#
#484
1#
#485
b11110000 !
b11110000 1
b11110000 `
b11110000 a
b11110000 7
b11110000 A
b11110000 _
b11110000 b
b11110000 c
#488
0#
#492
1#
#493
b11110100 !
b11110100 1
b11110100 `
b11110100 a
b11110100 7
b11110100 A
b11110100 _
b11110100 b
b11110100 c
#496
0#
#500
1#
#501
b11111000 !
b11111000 1
b11111000 `
b11111000 a
b11111000 7
b11111000 A
b11111000 _
b11111000 b
b11111000 c
